<?xml version="1.0" encoding="UTF-8" standalone="no"?>
<svg
   xmlns:dc="http://purl.org/dc/elements/1.1/"
   xmlns:cc="http://creativecommons.org/ns#"
   xmlns:rdf="http://www.w3.org/1999/02/22-rdf-syntax-ns#"
   xmlns:svg="http://www.w3.org/2000/svg"
   xmlns="http://www.w3.org/2000/svg"
   xmlns:sodipodi="http://sodipodi.sourceforge.net/DTD/sodipodi-0.dtd"
   xmlns:inkscape="http://www.inkscape.org/namespaces/inkscape"
   width="3.7424681mm"
   height="116.79174mm"
   viewBox="0 0 3.7424681 116.79174"
   version="1.1"
   id="svg1396"
   inkscape:version="1.0.2 (e86c870879, 2021-01-15)"
   sodipodi:docname="slow-watch-hand.svg">
  <defs
     id="defs1390" />
  <sodipodi:namedview
     id="base"
     pagecolor="#ffffff"
     bordercolor="#666666"
     borderopacity="1.0"
     inkscape:pageopacity="0.0"
     inkscape:pageshadow="2"
     inkscape:zoom="0.98994949"
     inkscape:cx="334.73088"
     inkscape:cy="524.77505"
     inkscape:document-units="mm"
     inkscape:current-layer="layer1"
     inkscape:document-rotation="0"
     showgrid="false"
     inkscape:window-width="1896"
     inkscape:window-height="2092"
     inkscape:window-x="1924"
     inkscape:window-y="48"
     inkscape:window-maximized="0" />
  <metadata
     id="metadata1393">
    <rdf:RDF>
      <cc:Work
         rdf:about="">
        <dc:format>image/svg+xml</dc:format>
        <dc:type
           rdf:resource="http://purl.org/dc/dcmitype/StillImage" />
        <dc:title></dc:title>
      </cc:Work>
    </rdf:RDF>
  </metadata>
  <g
     inkscape:label="Layer 1"
     inkscape:groupmode="layer"
     id="layer1">
    <g
       id="g1388"
       transform="translate(-79.750173,-23.050883)">
      <path
         id="rect1119"
         style="fill:#000000;stroke:none;stroke-width:3.54991"
         d="m 308.49023,300.58203 a 7.0319727,7.2492433 0 0 0 -7.03125,7.24805 h -0.041 v 202.35937 0.0215 h 0.008 l 7.04492,18.32812 7.04297,-18.32812 h 0.008 v -0.0215 -202.35937 a 7.0319727,7.2492433 0 0 0 -7.03125,-7.24805 z"
         transform="scale(0.26458333)" />
      <path
         id="path1384"
         style="fill:#ff0000;fill-opacity:0;stroke:none;stroke-width:0.939247"
         d="m 81.632222,83.364406 a 1.8605428,1.9180289 0 0 1 -1.860351,-1.917698 h -0.01085 v -53.54081 -0.0057 h 0.0021 l 1.863968,-4.849315 1.863452,4.849315 h 0.0021 v 0.0057 53.54081 a 1.8605428,1.9180289 0 0 1 -1.860352,1.917698 z" />
    </g>
  </g>
</svg>
