<?xml version="1.0" encoding="UTF-8" standalone="no"?>
<svg
   xmlns:dc="http://purl.org/dc/elements/1.1/"
   xmlns:cc="http://creativecommons.org/ns#"
   xmlns:rdf="http://www.w3.org/1999/02/22-rdf-syntax-ns#"
   xmlns:svg="http://www.w3.org/2000/svg"
   xmlns="http://www.w3.org/2000/svg"
   xmlns:sodipodi="http://sodipodi.sourceforge.net/DTD/sodipodi-0.dtd"
   xmlns:inkscape="http://www.inkscape.org/namespaces/inkscape"
   width="163.27315mm"
   height="163.27315mm"
   viewBox="0 0 163.27315 163.27315"
   version="1.1"
   id="svg8"
   inkscape:version="1.0.2 (e86c870879, 2021-01-15)"
   sodipodi:docname="slow-watch-face.svg">
  <defs
     id="defs2" />
  <sodipodi:namedview
     id="base"
     pagecolor="#ffffff"
     bordercolor="#666666"
     borderopacity="1.0"
     inkscape:pageopacity="0.0"
     inkscape:pageshadow="2"
     inkscape:zoom="2"
     inkscape:cx="161.77476"
     inkscape:cy="266.86738"
     inkscape:document-units="mm"
     inkscape:current-layer="layer1"
     inkscape:document-rotation="0"
     showgrid="false"
     inkscape:window-width="3808"
     inkscape:window-height="2064"
     inkscape:window-x="12"
     inkscape:window-y="80"
     inkscape:window-maximized="0" />
  <metadata
     id="metadata5">
    <rdf:RDF>
      <cc:Work
         rdf:about="">
        <dc:format>image/svg+xml</dc:format>
        <dc:type
           rdf:resource="http://purl.org/dc/dcmitype/StillImage" />
        <dc:title />
      </cc:Work>
    </rdf:RDF>
  </metadata>
  <g
     inkscape:label="Layer 1"
     inkscape:groupmode="layer"
     id="layer1">
    <text
       xml:space="preserve"
       style="font-style:normal;font-variant:normal;font-weight:normal;font-stretch:normal;font-size:10.5833px;line-height:1.25;font-family:Cambria;-inkscape-font-specification:Cambria;fill:#000000;fill-opacity:1;stroke:none;stroke-width:0.264583"
       x="42.796585"
       y="142.44746"
       id="text16"><tspan
         sodipodi:role="line"
         id="tspan14"
         x="42.796585"
         y="142.44746"
         style="font-style:normal;font-variant:normal;font-weight:normal;font-stretch:normal;font-family:Cambria;-inkscape-font-specification:Cambria;stroke-width:0.264583">02</tspan></text>
    <text
       xml:space="preserve"
       style="font-style:normal;font-variant:normal;font-weight:normal;font-stretch:normal;font-size:10.5833px;line-height:1.25;font-family:Cambria;-inkscape-font-specification:Cambria;fill:#000000;fill-opacity:1;stroke:none;stroke-width:0.264583"
       x="18.358158"
       y="118.2364"
       id="text28"><tspan
         sodipodi:role="line"
         x="18.358158"
         y="118.2364"
         style="font-style:normal;font-variant:normal;font-weight:normal;font-stretch:normal;font-family:Cambria;-inkscape-font-specification:Cambria;stroke-width:0.264583"
         id="tspan30">04</tspan></text>
    <text
       xml:space="preserve"
       style="font-style:normal;font-variant:normal;font-weight:normal;font-stretch:normal;font-size:10.5833px;line-height:1.25;font-family:Cambria;-inkscape-font-specification:Cambria;fill:#000000;fill-opacity:1;stroke:none;stroke-width:0.264583"
       x="9.5557222"
       y="85.16349"
       id="text40"><tspan
         sodipodi:role="line"
         id="tspan38"
         x="9.5557222"
         y="85.16349"
         style="font-style:normal;font-variant:normal;font-weight:normal;font-stretch:normal;font-family:Cambria;-inkscape-font-specification:Cambria;stroke-width:0.264583">06</tspan></text>
    <text
       xml:space="preserve"
       style="font-style:normal;font-variant:normal;font-weight:normal;font-stretch:normal;font-size:10.5833px;line-height:1.25;font-family:Cambria;-inkscape-font-specification:Cambria;fill:#000000;fill-opacity:1;stroke:none;stroke-width:0.264583"
       x="18.446018"
       y="52.090553"
       id="text48"><tspan
         sodipodi:role="line"
         id="tspan46"
         x="18.446018"
         y="52.090553"
         style="font-style:normal;font-variant:normal;font-weight:normal;font-stretch:normal;font-family:Cambria;-inkscape-font-specification:Cambria;stroke-width:0.264583">08</tspan></text>
    <text
       xml:space="preserve"
       style="font-style:normal;font-variant:normal;font-weight:normal;font-stretch:normal;font-size:10.5833px;line-height:1.25;font-family:Cambria;-inkscape-font-specification:Cambria;fill:#000000;fill-opacity:1;stroke:none;stroke-width:0.264583"
       x="42.576946"
       y="27.879524"
       id="text56"><tspan
         sodipodi:role="line"
         id="tspan54"
         x="42.576946"
         y="27.879524"
         style="font-style:normal;font-variant:normal;font-weight:normal;font-stretch:normal;font-family:Cambria;-inkscape-font-specification:Cambria;stroke-width:0.264583">10</tspan></text>
    <text
       xml:space="preserve"
       style="font-style:normal;font-variant:normal;font-weight:normal;font-stretch:normal;font-size:10.5833px;line-height:1.25;font-family:Cambria;-inkscape-font-specification:Cambria;fill:#000000;fill-opacity:1;stroke:none;stroke-width:0.264583"
       x="75.742897"
       y="19.05899"
       id="text64"><tspan
         sodipodi:role="line"
         id="tspan62"
         x="75.742897"
         y="19.05899"
         style="font-style:normal;font-variant:normal;font-weight:normal;font-stretch:normal;font-family:Cambria;-inkscape-font-specification:Cambria;stroke-width:0.264583">12</tspan></text>
    <text
       xml:space="preserve"
       style="font-style:normal;font-variant:normal;font-weight:normal;font-stretch:normal;font-size:10.5833px;line-height:1.25;font-family:Cambria;-inkscape-font-specification:Cambria;fill:#000000;fill-opacity:1;stroke:none;stroke-width:0.264583"
       x="108.58843"
       y="27.920849"
       id="text72"><tspan
         sodipodi:role="line"
         id="tspan70"
         x="108.58843"
         y="27.920849"
         style="font-style:normal;font-variant:normal;font-weight:normal;font-stretch:normal;font-family:Cambria;-inkscape-font-specification:Cambria;stroke-width:0.264583">14</tspan></text>
    <text
       xml:space="preserve"
       style="font-style:normal;font-variant:normal;font-weight:normal;font-stretch:normal;font-size:10.5833px;line-height:1.25;font-family:Cambria;-inkscape-font-specification:Cambria;fill:#000000;fill-opacity:1;stroke:none;stroke-width:0.264583"
       x="132.85893"
       y="52.09058"
       id="text80"><tspan
         sodipodi:role="line"
         id="tspan78"
         x="132.85893"
         y="52.09058"
         style="font-style:normal;font-variant:normal;font-weight:normal;font-stretch:normal;font-family:Cambria;-inkscape-font-specification:Cambria;stroke-width:0.264583">16</tspan></text>
    <text
       xml:space="preserve"
       style="font-style:normal;font-variant:normal;font-weight:normal;font-stretch:normal;font-size:10.5833px;line-height:1.25;font-family:Cambria;-inkscape-font-specification:Cambria;fill:#000000;fill-opacity:1;stroke:none;stroke-width:0.264583"
       x="141.74921"
       y="85.16349"
       id="text88"><tspan
         sodipodi:role="line"
         id="tspan86"
         x="141.74921"
         y="85.16349"
         style="font-style:normal;font-variant:normal;font-weight:normal;font-stretch:normal;font-family:Cambria;-inkscape-font-specification:Cambria;stroke-width:0.264583">18</tspan></text>
    <text
       xml:space="preserve"
       style="font-style:normal;font-variant:normal;font-weight:normal;font-stretch:normal;font-size:10.5833px;line-height:1.25;font-family:Cambria;-inkscape-font-specification:Cambria;fill:#000000;fill-opacity:1;stroke:none;stroke-width:0.264583"
       x="133.06047"
       y="118.23637"
       id="text96"><tspan
         sodipodi:role="line"
         id="tspan94"
         x="133.06047"
         y="118.23637"
         style="font-style:normal;font-variant:normal;font-weight:normal;font-stretch:normal;font-family:Cambria;-inkscape-font-specification:Cambria;stroke-width:0.264583">20</tspan></text>
    <text
       xml:space="preserve"
       style="font-style:normal;font-variant:normal;font-weight:normal;font-stretch:normal;font-size:10.5833px;line-height:1.25;font-family:Cambria;-inkscape-font-specification:Cambria;fill:#000000;fill-opacity:1;stroke:none;stroke-width:0.264583"
       x="108.94242"
       y="142.4888"
       id="text104"><tspan
         sodipodi:role="line"
         id="tspan102"
         x="108.94242"
         y="142.4888"
         style="font-style:normal;font-variant:normal;font-weight:normal;font-stretch:normal;font-family:Cambria;-inkscape-font-specification:Cambria;stroke-width:0.264583">22</tspan></text>
    <text
       xml:space="preserve"
       style="font-style:normal;font-variant:normal;font-weight:normal;font-stretch:normal;font-size:10.5833px;line-height:1.25;font-family:Cambria;-inkscape-font-specification:Cambria;fill:#000000;fill-opacity:1;stroke:none;stroke-width:0.264583"
       x="75.776482"
       y="151.30933"
       id="text112"><tspan
         sodipodi:role="line"
         x="75.776482"
         y="151.30933"
         style="font-style:normal;font-variant:normal;font-weight:normal;font-stretch:normal;font-family:Cambria;-inkscape-font-specification:Cambria;stroke-width:0.264583"
         id="tspan114">00</tspan></text>
    <path
       style="fill:none;stroke:#000000;stroke-width:0.556439;stroke-linecap:butt;stroke-linejoin:miter;stroke-miterlimit:4;stroke-dasharray:none;stroke-opacity:1"
       d="m 76.586128,158.69152 -0.281852,4.30023"
       id="path1003" />
    <path
       style="fill:none;stroke:#000000;stroke-width:0.556439;stroke-linecap:butt;stroke-linejoin:miter;stroke-miterlimit:4;stroke-dasharray:none;stroke-opacity:1"
       d="m 71.557309,158.19622 -0.562498,4.27259"
       id="path1005" />
    <path
       style="fill:none;stroke:#000000;stroke-width:0.556439;stroke-linecap:butt;stroke-linejoin:miter;stroke-miterlimit:4;stroke-dasharray:none;stroke-opacity:1"
       d="m 66.571651,157.37308 -0.840734,4.22665"
       id="path1007" />
    <path
       style="fill:none;stroke:#000000;stroke-width:0.556439;stroke-linecap:butt;stroke-linejoin:miter;stroke-miterlimit:4;stroke-dasharray:none;stroke-opacity:1"
       d="m 56.814937,154.75878 -1.38523,4.08075"
       id="path1011" />
    <path
       style="fill:none;stroke:#000000;stroke-width:0.556439;stroke-linecap:butt;stroke-linejoin:miter;stroke-miterlimit:4;stroke-dasharray:none;stroke-opacity:1"
       d="m 52.085654,152.9788 -1.649159,3.98142"
       id="path1013" />
    <path
       style="fill:none;stroke:#000000;stroke-width:0.556439;stroke-linecap:butt;stroke-linejoin:miter;stroke-miterlimit:4;stroke-dasharray:none;stroke-opacity:1"
       d="m 47.482932,150.89333 -1.906025,3.86504"
       id="path1015" />
    <path
       style="fill:none;stroke:#000000;stroke-width:0.556439;stroke-linecap:butt;stroke-linejoin:miter;stroke-miterlimit:4;stroke-dasharray:none;stroke-opacity:1"
       d="m 38.735299,145.84289 -2.394207,3.58318"
       id="path1019" />
    <path
       style="fill:none;stroke:#000000;stroke-width:0.556439;stroke-linecap:butt;stroke-linejoin:miter;stroke-miterlimit:4;stroke-dasharray:none;stroke-opacity:1"
       d="m 34.627855,142.89954 -2.623433,3.41892"
       id="path1021" />
    <path
       style="fill:none;stroke:#000000;stroke-width:0.556439;stroke-linecap:butt;stroke-linejoin:miter;stroke-miterlimit:4;stroke-dasharray:none;stroke-opacity:1"
       d="m 30.721709,139.69384 -2.841425,3.24002"
       id="path1023" />
    <path
       style="fill:none;stroke:#000000;stroke-width:0.556439;stroke-linecap:butt;stroke-linejoin:miter;stroke-miterlimit:4;stroke-dasharray:none;stroke-opacity:1"
       d="m 23.579301,132.55143 -3.240023,2.84143"
       id="path1027" />
    <path
       style="fill:none;stroke:#000000;stroke-width:0.556439;stroke-linecap:butt;stroke-linejoin:miter;stroke-miterlimit:4;stroke-dasharray:none;stroke-opacity:1"
       d="m 20.37362,128.6453 -3.418924,2.62343"
       id="path1029" />
    <path
       style="fill:none;stroke:#000000;stroke-width:0.556439;stroke-linecap:butt;stroke-linejoin:miter;stroke-miterlimit:4;stroke-dasharray:none;stroke-opacity:1"
       d="m 17.430265,124.53786 -3.583184,2.3942"
       id="path1031" />
    <path
       style="fill:none;stroke:#000000;stroke-width:0.556439;stroke-linecap:butt;stroke-linejoin:miter;stroke-miterlimit:4;stroke-dasharray:none;stroke-opacity:1"
       d="m 12.379828,115.79024 -3.8650364,1.90603"
       id="path1035" />
    <path
       style="fill:none;stroke:#000000;stroke-width:0.556439;stroke-linecap:butt;stroke-linejoin:miter;stroke-miterlimit:4;stroke-dasharray:none;stroke-opacity:1"
       d="m 10.294345,111.18748 -3.9814214,1.64916"
       id="path1037" />
    <path
       style="fill:none;stroke:#000000;stroke-width:0.556439;stroke-linecap:butt;stroke-linejoin:miter;stroke-miterlimit:4;stroke-dasharray:none;stroke-opacity:1"
       d="m 8.5143766,106.45822 -4.080757,1.38523"
       id="path1039" />
    <path
       style="fill:none;stroke:#000000;stroke-width:0.556439;stroke-linecap:butt;stroke-linejoin:miter;stroke-miterlimit:4;stroke-dasharray:none;stroke-opacity:1"
       d="m 5.9000706,96.701504 -4.226654,0.840734"
       id="path1043" />
    <path
       style="fill:none;stroke:#000000;stroke-width:0.556439;stroke-linecap:butt;stroke-linejoin:miter;stroke-miterlimit:4;stroke-dasharray:none;stroke-opacity:1"
       d="M 5.0769336,91.715838 0.804343,92.278334"
       id="path1045" />
    <path
       style="fill:none;stroke:#000000;stroke-width:0.556439;stroke-linecap:butt;stroke-linejoin:miter;stroke-miterlimit:4;stroke-dasharray:none;stroke-opacity:1"
       d="M 4.5816366,86.687027 0.281405,86.968879"
       id="path1047" />
    <path
       style="fill:none;stroke:#000000;stroke-width:0.556439;stroke-linecap:butt;stroke-linejoin:miter;stroke-miterlimit:4;stroke-dasharray:none;stroke-opacity:1"
       d="M 4.5816366,76.586134 0.281405,76.304282"
       id="path1051" />
    <path
       style="fill:none;stroke:#000000;stroke-width:0.556439;stroke-linecap:butt;stroke-linejoin:miter;stroke-miterlimit:4;stroke-dasharray:none;stroke-opacity:1"
       d="M 5.0769416,71.557304 0.804351,70.994808"
       id="path1053" />
    <path
       style="fill:none;stroke:#000000;stroke-width:0.556439;stroke-linecap:butt;stroke-linejoin:miter;stroke-miterlimit:4;stroke-dasharray:none;stroke-opacity:1"
       d="M 5.9000696,66.571657 1.6734156,65.730924"
       id="path1055" />
    <path
       style="fill:none;stroke:#000000;stroke-width:0.556439;stroke-linecap:butt;stroke-linejoin:miter;stroke-miterlimit:4;stroke-dasharray:none;stroke-opacity:1"
       d="m 8.5143766,56.814925 -4.080757,-1.38523"
       id="path1059" />
    <path
       style="fill:none;stroke:#000000;stroke-width:0.556439;stroke-linecap:butt;stroke-linejoin:miter;stroke-miterlimit:4;stroke-dasharray:none;stroke-opacity:1"
       d="M 10.294354,52.08566 6.3129326,50.436501"
       id="path1061" />
    <path
       style="fill:none;stroke:#000000;stroke-width:0.556439;stroke-linecap:butt;stroke-linejoin:miter;stroke-miterlimit:4;stroke-dasharray:none;stroke-opacity:1"
       d="M 12.379813,47.482936 8.5147756,45.576912"
       id="path1063" />
    <path
       style="fill:none;stroke:#000000;stroke-width:0.556439;stroke-linecap:butt;stroke-linejoin:miter;stroke-miterlimit:4;stroke-dasharray:none;stroke-opacity:1"
       d="M 17.430277,38.735287 13.847093,36.341079"
       id="path1067" />
    <path
       style="fill:none;stroke:#000000;stroke-width:0.556439;stroke-linecap:butt;stroke-linejoin:miter;stroke-miterlimit:4;stroke-dasharray:none;stroke-opacity:1"
       d="M 20.373616,34.627859 16.954692,32.004426"
       id="path1069" />
    <path
       style="fill:none;stroke:#000000;stroke-width:0.556439;stroke-linecap:butt;stroke-linejoin:miter;stroke-miterlimit:4;stroke-dasharray:none;stroke-opacity:1"
       d="M 23.579293,30.721724 20.33927,27.880302"
       id="path1071" />
    <path
       style="fill:none;stroke:#000000;stroke-width:0.556439;stroke-linecap:butt;stroke-linejoin:miter;stroke-miterlimit:4;stroke-dasharray:none;stroke-opacity:1"
       d="M 30.721717,23.579305 27.880293,20.339283"
       id="path1075" />
    <path
       style="fill:none;stroke:#000000;stroke-width:0.556439;stroke-linecap:butt;stroke-linejoin:miter;stroke-miterlimit:4;stroke-dasharray:none;stroke-opacity:1"
       d="M 34.627851,20.373624 32.004418,16.954701"
       id="path1077" />
    <path
       style="fill:none;stroke:#000000;stroke-width:0.556439;stroke-linecap:butt;stroke-linejoin:miter;stroke-miterlimit:4;stroke-dasharray:none;stroke-opacity:1"
       d="M 38.73528,17.430281 36.341072,13.847096"
       id="path1079" />
    <path
       style="fill:none;stroke:#000000;stroke-width:0.556439;stroke-linecap:butt;stroke-linejoin:miter;stroke-miterlimit:4;stroke-dasharray:none;stroke-opacity:1"
       d="M 47.482923,12.379822 45.576899,8.514784"
       id="path1083" />
    <path
       style="fill:none;stroke:#000000;stroke-width:0.556439;stroke-linecap:butt;stroke-linejoin:miter;stroke-miterlimit:4;stroke-dasharray:none;stroke-opacity:1"
       d="M 52.085649,10.294354 50.43649,6.312932"
       id="path1085" />
    <path
       style="fill:none;stroke:#000000;stroke-width:0.556439;stroke-linecap:butt;stroke-linejoin:miter;stroke-miterlimit:4;stroke-dasharray:none;stroke-opacity:1"
       d="M 56.814914,8.514385 55.429682,4.433629"
       id="path1087" />
    <path
       style="fill:none;stroke:#000000;stroke-width:0.556439;stroke-linecap:butt;stroke-linejoin:miter;stroke-miterlimit:4;stroke-dasharray:none;stroke-opacity:1"
       d="M 66.571646,5.900078 65.730912,1.673425"
       id="path1091" />
    <path
       style="fill:none;stroke:#000000;stroke-width:0.556439;stroke-linecap:butt;stroke-linejoin:miter;stroke-miterlimit:4;stroke-dasharray:none;stroke-opacity:1"
       d="M 71.557295,5.076942 70.994797,0.804351"
       id="path1093" />
    <path
       style="fill:none;stroke:#000000;stroke-width:0.556439;stroke-linecap:butt;stroke-linejoin:miter;stroke-miterlimit:4;stroke-dasharray:none;stroke-opacity:1"
       d="M 76.586142,4.581637 76.304291,0.281404"
       id="path1095" />
    <path
       style="fill:none;stroke:#000000;stroke-width:0.992188;stroke-linecap:butt;stroke-linejoin:miter;stroke-miterlimit:4;stroke-dasharray:none;stroke-opacity:1"
       d="m 81.636575,154.78125 v 8.4919"
       id="path1097" />
    <path
       style="fill:none;stroke:#000000;stroke-width:0.556439;stroke-linecap:butt;stroke-linejoin:miter;stroke-miterlimit:4;stroke-dasharray:none;stroke-opacity:1"
       d="M 86.687017,4.581637 86.968868,0.281404"
       id="path1099" />
    <path
       style="fill:none;stroke:#000000;stroke-width:0.556439;stroke-linecap:butt;stroke-linejoin:miter;stroke-miterlimit:4;stroke-dasharray:none;stroke-opacity:1"
       d="m 91.715832,5.076934 0.56249,-4.272591"
       id="path1101" />
    <path
       style="fill:none;stroke:#000000;stroke-width:0.556439;stroke-linecap:butt;stroke-linejoin:miter;stroke-miterlimit:4;stroke-dasharray:none;stroke-opacity:1"
       d="m 96.701512,5.900078 0.84073,-4.226653"
       id="path1103" />
    <path
       style="fill:none;stroke:#000000;stroke-width:0.556439;stroke-linecap:butt;stroke-linejoin:miter;stroke-miterlimit:4;stroke-dasharray:none;stroke-opacity:1"
       d="M 106.4582,8.514377 107.84343,4.43362"
       id="path1107" />
    <path
       style="fill:none;stroke:#000000;stroke-width:0.556439;stroke-linecap:butt;stroke-linejoin:miter;stroke-miterlimit:4;stroke-dasharray:none;stroke-opacity:1"
       d="m 111.18747,10.294346 1.64916,-3.981422"
       id="path1109" />
    <path
       style="fill:none;stroke:#000000;stroke-width:0.556439;stroke-linecap:butt;stroke-linejoin:miter;stroke-miterlimit:4;stroke-dasharray:none;stroke-opacity:1"
       d="m 115.79023,12.37983 1.90603,-3.865038"
       id="path1111" />
    <path
       style="fill:none;stroke:#000000;stroke-width:0.556439;stroke-linecap:butt;stroke-linejoin:miter;stroke-miterlimit:4;stroke-dasharray:none;stroke-opacity:1"
       d="m 124.53785,17.430261 2.3942,-3.583185"
       id="path1115" />
    <path
       style="fill:none;stroke:#000000;stroke-width:0.556439;stroke-linecap:butt;stroke-linejoin:miter;stroke-miterlimit:4;stroke-dasharray:none;stroke-opacity:1"
       d="m 128.64531,20.373624 2.62343,-3.418923"
       id="path1117" />
    <path
       style="fill:none;stroke:#000000;stroke-width:0.556439;stroke-linecap:butt;stroke-linejoin:miter;stroke-miterlimit:4;stroke-dasharray:none;stroke-opacity:1"
       d="m 132.55141,23.579282 2.84142,-3.240024"
       id="path1119" />
    <path
       style="fill:none;stroke:#000000;stroke-width:0.556439;stroke-linecap:butt;stroke-linejoin:miter;stroke-miterlimit:4;stroke-dasharray:none;stroke-opacity:1"
       d="m 139.69386,30.721724 3.24002,-2.841422"
       id="path1123" />
    <path
       style="fill:none;stroke:#000000;stroke-width:0.556439;stroke-linecap:butt;stroke-linejoin:miter;stroke-miterlimit:4;stroke-dasharray:none;stroke-opacity:1"
       d="m 142.89954,34.627859 3.41892,-2.623433"
       id="path1125" />
    <path
       style="fill:none;stroke:#000000;stroke-width:0.556439;stroke-linecap:butt;stroke-linejoin:miter;stroke-miterlimit:4;stroke-dasharray:none;stroke-opacity:1"
       d="m 145.84288,38.735287 3.58319,-2.394208"
       id="path1127" />
    <path
       style="fill:none;stroke:#000000;stroke-width:0.556439;stroke-linecap:butt;stroke-linejoin:miter;stroke-miterlimit:4;stroke-dasharray:none;stroke-opacity:1"
       d="m 150.89332,47.482904 3.86503,-1.906027"
       id="path1131" />
    <path
       style="fill:none;stroke:#000000;stroke-width:0.556439;stroke-linecap:butt;stroke-linejoin:miter;stroke-miterlimit:4;stroke-dasharray:none;stroke-opacity:1"
       d="m 152.97881,52.08566 3.98142,-1.649159"
       id="path1133" />
    <path
       style="fill:none;stroke:#000000;stroke-width:0.556439;stroke-linecap:butt;stroke-linejoin:miter;stroke-miterlimit:4;stroke-dasharray:none;stroke-opacity:1"
       d="m 154.75878,56.814927 4.08075,-1.38523"
       id="path1135" />
    <path
       style="fill:none;stroke:#000000;stroke-width:0.556439;stroke-linecap:butt;stroke-linejoin:miter;stroke-miterlimit:4;stroke-dasharray:none;stroke-opacity:1"
       d="m 157.37308,66.571659 4.22666,-0.840734"
       id="path1139" />
    <path
       style="fill:none;stroke:#000000;stroke-width:0.556439;stroke-linecap:butt;stroke-linejoin:miter;stroke-miterlimit:4;stroke-dasharray:none;stroke-opacity:1"
       d="m 158.19622,71.557308 4.27259,-0.562497"
       id="path1141" />
    <path
       style="fill:none;stroke:#000000;stroke-width:0.556439;stroke-linecap:butt;stroke-linejoin:miter;stroke-miterlimit:4;stroke-dasharray:none;stroke-opacity:1"
       d="m 158.69152,76.586117 4.30023,-0.281852"
       id="path1143" />
    <path
       style="fill:none;stroke:#000000;stroke-width:0.556439;stroke-linecap:butt;stroke-linejoin:miter;stroke-miterlimit:4;stroke-dasharray:none;stroke-opacity:1"
       d="m 158.69152,86.687029 4.30023,0.281852"
       id="path1147" />
    <path
       style="fill:none;stroke:#000000;stroke-width:0.556439;stroke-linecap:butt;stroke-linejoin:miter;stroke-miterlimit:4;stroke-dasharray:none;stroke-opacity:1"
       d="m 158.19622,91.71584 4.27259,0.562496"
       id="path1149" />
    <path
       style="fill:none;stroke:#000000;stroke-width:0.556439;stroke-linecap:butt;stroke-linejoin:miter;stroke-miterlimit:4;stroke-dasharray:none;stroke-opacity:1"
       d="m 157.37308,96.70149 4.22666,0.840733"
       id="path1151" />
    <path
       style="fill:none;stroke:#000000;stroke-width:0.556439;stroke-linecap:butt;stroke-linejoin:miter;stroke-miterlimit:4;stroke-dasharray:none;stroke-opacity:1"
       d="m 154.75878,106.45822 4.08075,1.38523"
       id="path1155" />
    <path
       style="fill:none;stroke:#000000;stroke-width:0.556439;stroke-linecap:butt;stroke-linejoin:miter;stroke-miterlimit:4;stroke-dasharray:none;stroke-opacity:1"
       d="m 152.97881,111.18749 3.98142,1.64915"
       id="path1157" />
    <path
       style="fill:none;stroke:#000000;stroke-width:0.556439;stroke-linecap:butt;stroke-linejoin:miter;stroke-miterlimit:4;stroke-dasharray:none;stroke-opacity:1"
       d="m 150.89333,115.79024 3.86503,1.90603"
       id="path1159" />
    <path
       style="fill:none;stroke:#000000;stroke-width:0.556439;stroke-linecap:butt;stroke-linejoin:miter;stroke-miterlimit:4;stroke-dasharray:none;stroke-opacity:1"
       d="m 145.84289,124.53786 3.58318,2.3942"
       id="path1163" />
    <path
       style="fill:none;stroke:#000000;stroke-width:0.556439;stroke-linecap:butt;stroke-linejoin:miter;stroke-miterlimit:4;stroke-dasharray:none;stroke-opacity:1"
       d="m 142.89954,128.64528 3.41893,2.62344"
       id="path1165" />
    <path
       style="fill:none;stroke:#000000;stroke-width:0.556439;stroke-linecap:butt;stroke-linejoin:miter;stroke-miterlimit:4;stroke-dasharray:none;stroke-opacity:1"
       d="m 139.69386,132.55142 3.24003,2.84142"
       id="path1167" />
    <path
       style="fill:none;stroke:#000000;stroke-width:0.556439;stroke-linecap:butt;stroke-linejoin:miter;stroke-miterlimit:4;stroke-dasharray:none;stroke-opacity:1"
       d="m 132.55145,139.69385 2.84142,3.24002"
       id="path1171" />
    <path
       style="fill:none;stroke:#000000;stroke-width:0.556439;stroke-linecap:butt;stroke-linejoin:miter;stroke-miterlimit:4;stroke-dasharray:none;stroke-opacity:1"
       d="m 128.64531,142.89953 2.62343,3.41892"
       id="path1173" />
    <path
       style="fill:none;stroke:#000000;stroke-width:0.556439;stroke-linecap:butt;stroke-linejoin:miter;stroke-miterlimit:4;stroke-dasharray:none;stroke-opacity:1"
       d="m 124.53785,145.84289 2.39421,3.58318"
       id="path1175" />
    <path
       style="fill:none;stroke:#000000;stroke-width:0.556439;stroke-linecap:butt;stroke-linejoin:miter;stroke-miterlimit:4;stroke-dasharray:none;stroke-opacity:1"
       d="m 115.79024,150.89333 1.90603,3.86503"
       id="path1179" />
    <path
       style="fill:none;stroke:#000000;stroke-width:0.556439;stroke-linecap:butt;stroke-linejoin:miter;stroke-miterlimit:4;stroke-dasharray:none;stroke-opacity:1"
       d="m 111.18751,152.97879 1.64916,3.98142"
       id="path1181" />
    <path
       style="fill:none;stroke:#000000;stroke-width:0.556439;stroke-linecap:butt;stroke-linejoin:miter;stroke-miterlimit:4;stroke-dasharray:none;stroke-opacity:1"
       d="m 106.45822,154.75878 1.38523,4.08075"
       id="path1183" />
    <path
       style="fill:none;stroke:#000000;stroke-width:0.556439;stroke-linecap:butt;stroke-linejoin:miter;stroke-miterlimit:4;stroke-dasharray:none;stroke-opacity:1"
       d="m 96.701522,157.37308 0.84074,4.22665"
       id="path1187" />
    <path
       style="fill:none;stroke:#000000;stroke-width:0.556439;stroke-linecap:butt;stroke-linejoin:miter;stroke-miterlimit:4;stroke-dasharray:none;stroke-opacity:1"
       d="m 91.715842,158.19622 0.56249,4.27259"
       id="path1189" />
    <path
       style="fill:none;stroke:#000000;stroke-width:0.556439;stroke-linecap:butt;stroke-linejoin:miter;stroke-miterlimit:4;stroke-dasharray:none;stroke-opacity:1"
       d="m 86.687063,158.69151 0.281854,4.30023"
       id="path1191" />
    <path
       style="fill:none;stroke:#000000;stroke-width:0.992188;stroke-linecap:butt;stroke-linejoin:miter;stroke-miterlimit:4;stroke-dasharray:none;stroke-opacity:1"
       d="m 62.705335,152.2889 -2.197868,8.20255"
       id="path1251" />
    <path
       style="fill:none;stroke:#000000;stroke-width:0.992188;stroke-linecap:butt;stroke-linejoin:miter;stroke-miterlimit:4;stroke-dasharray:none;stroke-opacity:1"
       d="m 45.064238,144.98172 -4.245954,7.35421"
       id="path1253" />
    <path
       style="fill:none;stroke:#000000;stroke-width:0.992188;stroke-linecap:butt;stroke-linejoin:miter;stroke-miterlimit:4;stroke-dasharray:none;stroke-opacity:1"
       d="m 29.915484,133.35767 -6.004685,6.00469"
       id="path1255" />
    <path
       style="fill:none;stroke:#000000;stroke-width:0.992188;stroke-linecap:butt;stroke-linejoin:miter;stroke-miterlimit:4;stroke-dasharray:none;stroke-opacity:1"
       d="m 18.291436,118.20892 -7.354207,4.24595"
       id="path1257" />
    <path
       style="fill:none;stroke:#000000;stroke-width:0.992188;stroke-linecap:butt;stroke-linejoin:miter;stroke-miterlimit:4;stroke-dasharray:none;stroke-opacity:1"
       d="m 10.984253,100.56782 -8.2025524,2.19786"
       id="path1259" />
    <path
       style="fill:none;stroke:#000000;stroke-width:0.992188;stroke-linecap:butt;stroke-linejoin:miter;stroke-miterlimit:4;stroke-dasharray:none;stroke-opacity:1"
       d="M 8.4919066,81.636589 H 0"
       id="path1261" />
    <path
       style="fill:none;stroke:#000000;stroke-width:0.992188;stroke-linecap:butt;stroke-linejoin:miter;stroke-miterlimit:4;stroke-dasharray:none;stroke-opacity:1"
       d="M 10.984246,62.70536 2.7816926,60.507494"
       id="path1263" />
    <path
       style="fill:none;stroke:#000000;stroke-width:0.992188;stroke-linecap:butt;stroke-linejoin:miter;stroke-miterlimit:4;stroke-dasharray:none;stroke-opacity:1"
       d="M 18.291444,45.064231 10.937237,40.818276"
       id="path1265" />
    <path
       style="fill:none;stroke:#000000;stroke-width:0.992188;stroke-linecap:butt;stroke-linejoin:miter;stroke-miterlimit:4;stroke-dasharray:none;stroke-opacity:1"
       d="M 29.915496,29.915478 23.910812,23.910792"
       id="path1267" />
    <path
       style="fill:none;stroke:#000000;stroke-width:0.992188;stroke-linecap:butt;stroke-linejoin:miter;stroke-miterlimit:4;stroke-dasharray:none;stroke-opacity:1"
       d="M 45.064219,18.291447 40.818263,10.937243"
       id="path1269" />
    <path
       style="fill:none;stroke:#000000;stroke-width:0.992188;stroke-linecap:butt;stroke-linejoin:miter;stroke-miterlimit:4;stroke-dasharray:none;stroke-opacity:1"
       d="M 62.705348,10.984246 60.507482,2.781693"
       id="path1271" />
    <path
       style="fill:none;stroke:#000000;stroke-width:0.992188;stroke-linecap:butt;stroke-linejoin:miter;stroke-miterlimit:4;stroke-dasharray:none;stroke-opacity:1"
       d="M 81.636579,8.491907 V 0"
       id="path1273" />
    <path
       style="fill:none;stroke:#000000;stroke-width:0.992188;stroke-linecap:butt;stroke-linejoin:miter;stroke-miterlimit:4;stroke-dasharray:none;stroke-opacity:1"
       d="m 100.56781,10.984255 2.19787,-8.202554"
       id="path1275" />
    <path
       style="fill:none;stroke:#000000;stroke-width:0.992188;stroke-linecap:butt;stroke-linejoin:miter;stroke-miterlimit:4;stroke-dasharray:none;stroke-opacity:1"
       d="m 118.2089,18.291432 4.24596,-7.354206"
       id="path1277" />
    <path
       style="fill:none;stroke:#000000;stroke-width:0.992188;stroke-linecap:butt;stroke-linejoin:miter;stroke-miterlimit:4;stroke-dasharray:none;stroke-opacity:1"
       d="m 133.35766,29.915478 6.00468,-6.004686"
       id="path1279" />
    <path
       style="fill:none;stroke:#000000;stroke-width:0.992188;stroke-linecap:butt;stroke-linejoin:miter;stroke-miterlimit:4;stroke-dasharray:none;stroke-opacity:1"
       d="m 144.98173,45.064262 7.35421,-4.245952"
       id="path1281" />
    <path
       style="fill:none;stroke:#000000;stroke-width:0.992188;stroke-linecap:butt;stroke-linejoin:miter;stroke-miterlimit:4;stroke-dasharray:none;stroke-opacity:1"
       d="m 152.2889,62.705326 8.20255,-2.197869"
       id="path1283" />
    <path
       style="fill:none;stroke:#000000;stroke-width:0.992188;stroke-linecap:butt;stroke-linejoin:miter;stroke-miterlimit:4;stroke-dasharray:none;stroke-opacity:1"
       d="m 154.78125,81.636592 h 8.4919"
       id="path1285" />
    <path
       style="fill:none;stroke:#000000;stroke-width:0.992188;stroke-linecap:butt;stroke-linejoin:miter;stroke-miterlimit:4;stroke-dasharray:none;stroke-opacity:1"
       d="m 152.2889,100.56782 8.20255,2.19787"
       id="path1287" />
    <path
       style="fill:none;stroke:#000000;stroke-width:0.992188;stroke-linecap:butt;stroke-linejoin:miter;stroke-miterlimit:4;stroke-dasharray:none;stroke-opacity:1"
       d="m 144.98174,118.20889 7.35421,4.24595"
       id="path1289" />
    <path
       style="fill:none;stroke:#000000;stroke-width:0.992188;stroke-linecap:butt;stroke-linejoin:miter;stroke-miterlimit:4;stroke-dasharray:none;stroke-opacity:1"
       d="m 133.35767,133.35767 6.00469,6.00469"
       id="path1291" />
    <path
       style="fill:none;stroke:#000000;stroke-width:0.992188;stroke-linecap:butt;stroke-linejoin:miter;stroke-miterlimit:4;stroke-dasharray:none;stroke-opacity:1"
       d="m 118.20891,144.98172 4.24596,7.35421"
       id="path1293" />
    <path
       style="fill:none;stroke:#000000;stroke-width:0.992188;stroke-linecap:butt;stroke-linejoin:miter;stroke-miterlimit:4;stroke-dasharray:none;stroke-opacity:1"
       d="m 100.56782,152.2889 2.19787,8.20255"
       id="path1295" />
  </g>
</svg>
